date,temperature,date_import
2022-06-29,19.1,2022-07-28
2022-06-30,21.1,2022-07-28
2022-07-01,21.4,2022-07-28
2022-07-02,21.9,2022-07-28
2022-07-03,20.6,2022-07-28
2022-07-04,21.2,2022-07-28
2022-07-05,22.4,2022-07-28
2022-07-06,21.4,2022-07-28
2022-07-07,20.6,2022-07-28
2022-07-08,21.1,2022-07-28
2022-07-09,20.7,2022-07-28
2022-07-10,18.7,2022-07-28
2022-07-11,19.1,2022-07-28
2022-07-13,20.5,2022-07-28
2022-07-14,21.1,2022-07-28
2022-07-15,21.0,2022-07-28
2022-07-16,20.5,2022-07-28
2022-07-17,19.7,2022-07-28
2022-07-18,22.4,2022-07-28
2022-07-19,21.3,2022-07-28
2022-07-20,20.5,2022-07-28
2022-07-21,20.6,2022-07-28
2022-07-22,20.9,2022-07-28
2022-07-23,19.0,2022-07-28
2022-07-24,19.9,2022-07-28
2022-07-25,20.6,2022-07-28
2022-07-26,19.1,2022-07-28
2022-07-27,21.4,2022-07-28
2022-07-03 00:00:00,20.6,2022-08-01
2022-07-04 00:00:00,21.2,2022-08-01
2022-07-05 00:00:00,22.4,2022-08-01
2022-07-06 00:00:00,21.4,2022-08-01
2022-07-07 00:00:00,20.6,2022-08-01
2022-07-08 00:00:00,21.1,2022-08-01
2022-07-09 00:00:00,20.7,2022-08-01
2022-07-10 00:00:00,18.7,2022-08-01
2022-07-11 00:00:00,19.1,2022-08-01
2022-07-13 00:00:00,20.5,2022-08-01
2022-07-14 00:00:00,21.1,2022-08-01
2022-07-15 00:00:00,21.0,2022-08-01
2022-07-16 00:00:00,20.5,2022-08-01
2022-07-17 00:00:00,19.7,2022-08-01
2022-07-18 00:00:00,22.4,2022-08-01
2022-07-19 00:00:00,21.3,2022-08-01
2022-07-20 00:00:00,20.5,2022-08-01
2022-07-21 00:00:00,20.6,2022-08-01
2022-07-22 00:00:00,20.9,2022-08-01
2022-07-23 00:00:00,19.0,2022-08-01
2022-07-24 00:00:00,19.9,2022-08-01
2022-07-25 00:00:00,20.6,2022-08-01
2022-07-26 00:00:00,19.1,2022-08-01
2022-07-27 00:00:00,21.4,2022-08-01
2022-07-28 00:00:00,20.0,2022-08-01
2022-07-29 00:00:00,19.6,2022-08-01
2022-07-30 00:00:00,19.3,2022-08-01
2022-07-31 00:00:00,20.6,2022-08-01
2022-07-03 00:00:00,20.6,2022-08-01
2022-07-04 00:00:00,21.2,2022-08-01
2022-07-05 00:00:00,22.4,2022-08-01
2022-07-06 00:00:00,21.4,2022-08-01
2022-07-07 00:00:00,20.6,2022-08-01
2022-07-08 00:00:00,21.1,2022-08-01
2022-07-09 00:00:00,20.7,2022-08-01
2022-07-10 00:00:00,18.7,2022-08-01
2022-07-11 00:00:00,19.1,2022-08-01
2022-07-13 00:00:00,20.5,2022-08-01
2022-07-14 00:00:00,21.1,2022-08-01
2022-07-15 00:00:00,21.0,2022-08-01
2022-07-16 00:00:00,20.5,2022-08-01
2022-07-17 00:00:00,19.7,2022-08-01
2022-07-18 00:00:00,22.4,2022-08-01
2022-07-19 00:00:00,21.3,2022-08-01
2022-07-20 00:00:00,20.5,2022-08-01
2022-07-21 00:00:00,20.6,2022-08-01
2022-07-22 00:00:00,20.9,2022-08-01
2022-07-23 00:00:00,19.0,2022-08-01
2022-07-24 00:00:00,19.9,2022-08-01
2022-07-25 00:00:00,20.6,2022-08-01
2022-07-26 00:00:00,19.1,2022-08-01
2022-07-27 00:00:00,21.4,2022-08-01
2022-07-28 00:00:00,20.0,2022-08-01
2022-07-29 00:00:00,19.6,2022-08-01
2022-07-30 00:00:00,19.3,2022-08-01
2022-07-31 00:00:00,20.6,2022-08-01
2022-07-04 00:00:00,21.2,2022-08-02
2022-07-05 00:00:00,22.4,2022-08-02
2022-07-06 00:00:00,21.4,2022-08-02
2022-07-07 00:00:00,20.6,2022-08-02
2022-07-08 00:00:00,21.1,2022-08-02
2022-07-09 00:00:00,20.7,2022-08-02
2022-07-10 00:00:00,18.7,2022-08-02
2022-07-11 00:00:00,19.1,2022-08-02
2022-07-13 00:00:00,20.5,2022-08-02
2022-07-14 00:00:00,21.1,2022-08-02
2022-07-15 00:00:00,21.0,2022-08-02
2022-07-16 00:00:00,20.5,2022-08-02
2022-07-17 00:00:00,19.7,2022-08-02
2022-07-18 00:00:00,22.4,2022-08-02
2022-07-19 00:00:00,21.3,2022-08-02
2022-07-20 00:00:00,20.5,2022-08-02
2022-07-21 00:00:00,20.6,2022-08-02
2022-07-22 00:00:00,20.9,2022-08-02
2022-07-23 00:00:00,19.0,2022-08-02
2022-07-24 00:00:00,19.9,2022-08-02
2022-07-25 00:00:00,20.6,2022-08-02
2022-07-26 00:00:00,19.1,2022-08-02
2022-07-27 00:00:00,21.4,2022-08-02
2022-07-28 00:00:00,20.0,2022-08-02
2022-07-29 00:00:00,19.6,2022-08-02
2022-07-30 00:00:00,19.3,2022-08-02
2022-07-31 00:00:00,20.6,2022-08-02
2022-08-01 00:00:00,20.3,2022-08-02
2022-07-05 00:00:00,22.4,2022-08-03
2022-07-06 00:00:00,21.4,2022-08-03
2022-07-07 00:00:00,20.6,2022-08-03
2022-07-08 00:00:00,21.1,2022-08-03
2022-07-09 00:00:00,20.7,2022-08-03
2022-07-10 00:00:00,18.7,2022-08-03
2022-07-11 00:00:00,19.1,2022-08-03
2022-07-13 00:00:00,20.5,2022-08-03
2022-07-14 00:00:00,21.1,2022-08-03
2022-07-15 00:00:00,21.0,2022-08-03
2022-07-16 00:00:00,20.5,2022-08-03
2022-07-17 00:00:00,19.7,2022-08-03
2022-07-18 00:00:00,22.4,2022-08-03
2022-07-19 00:00:00,21.3,2022-08-03
2022-07-20 00:00:00,20.5,2022-08-03
2022-07-21 00:00:00,20.6,2022-08-03
2022-07-22 00:00:00,20.9,2022-08-03
2022-07-23 00:00:00,19.0,2022-08-03
2022-07-24 00:00:00,19.9,2022-08-03
2022-07-25 00:00:00,20.6,2022-08-03
2022-07-26 00:00:00,19.1,2022-08-03
2022-07-27 00:00:00,21.4,2022-08-03
2022-07-28 00:00:00,20.0,2022-08-03
2022-07-29 00:00:00,19.6,2022-08-03
2022-07-30 00:00:00,19.3,2022-08-03
2022-07-31 00:00:00,20.6,2022-08-03
2022-08-01 00:00:00,20.3,2022-08-03
2022-08-02 00:00:00,22.7,2022-08-03
2022-07-07 00:00:00,20.6,2022-08-05
2022-07-08 00:00:00,21.1,2022-08-05
2022-07-09 00:00:00,20.7,2022-08-05
2022-07-10 00:00:00,18.7,2022-08-05
2022-07-11 00:00:00,19.1,2022-08-05
2022-07-13 00:00:00,20.5,2022-08-05
2022-07-14 00:00:00,21.1,2022-08-05
2022-07-15 00:00:00,21.0,2022-08-05
2022-07-16 00:00:00,20.5,2022-08-05
2022-07-17 00:00:00,19.7,2022-08-05
2022-07-18 00:00:00,22.4,2022-08-05
2022-07-19 00:00:00,21.3,2022-08-05
2022-07-20 00:00:00,20.5,2022-08-05
2022-07-21 00:00:00,20.6,2022-08-05
2022-07-22 00:00:00,20.9,2022-08-05
2022-07-23 00:00:00,19.0,2022-08-05
2022-07-24 00:00:00,19.9,2022-08-05
2022-07-25 00:00:00,20.6,2022-08-05
2022-07-26 00:00:00,19.1,2022-08-05
2022-07-27 00:00:00,21.4,2022-08-05
2022-07-28 00:00:00,20.0,2022-08-05
2022-07-29 00:00:00,19.6,2022-08-05
2022-07-30 00:00:00,19.3,2022-08-05
2022-07-31 00:00:00,20.6,2022-08-05
2022-08-01 00:00:00,20.3,2022-08-05
2022-08-02 00:00:00,22.7,2022-08-05
2022-08-03 00:00:00,22.0,2022-08-05
2022-08-04 00:00:00,21.3,2022-08-05
