Date;nb_cas
197301;0
197302;0
197303;0
197304;0
197305;0
197306;0
197307;0
197308;0
197309;0
197310;0
197311;0
197312;0
197401;0
197402;0
197403;0
197404;0
197405;0
197406;0
197407;0
197408;0
197409;0
197410;0
197411;0
197412;0
197501;0
197502;0
197503;3
197504;2
197505;1
197506;1
197507;0
197508;0
197509;0
197510;0
197511;0
197512;0
197601;0
197602;0
197603;33
197604;119
197605;6
197606;29
197607;7
197608;34
197609;0
197610;0
197611;0
197612;0
197701;18
197702;32
197703;52
197704;9
197705;3
197706;27
197707;19
197708;4
197709;5
197710;0
197711;9
197712;6
197801;11
197802;12
197803;1
197804;12
197805;3
197806;8
197807;4
197808;4
197809;1
197810;3
197811;0
197812;0
197901;0
197902;1
197903;11
197904;1
197905;5
197906;4
197907;1
197908;0
197909;5
197910;3
197911;1
197912;1
198001;13
198002;62
198003;307
198004;311
198005;72
198006;17
198007;14
198008;0
198009;0
198010;0
198011;0
198012;0
198101;0
198102;0
198103;0
198104;0
198105;0
198106;0
198107;0
198108;0
198109;0
198110;0
198111;0
198112;0
198201;0
198202;0
198203;0
198204;0
198205;0
198206;0
198207;0
198208;0
198209;0
198210;0
198211;0
198212;0
198301;0
198302;0
198303;0
198304;1
198305;0
198306;0
198307;0
198308;0
198309;0
198310;0
198311;0
198312;0
198401;0
198402;0
198403;0
198404;0
198405;0
198406;0
198407;0
198408;0
198409;0
198410;1
198411;4
198412;1
198501;3
198502;7
198503;1
198504;14
198505;15
198506;14
198507;6
198508;11
198509;7
198510;13
198511;22
198512;2
198601;12
198602;14
198603;5
198604;99
198605;37
198606;27
198607;54
198608;25
198609;26
198610;62
198611;19
198612;1
198701;5
198702;5
198703;4
198704;5
198705;1
198706;2
198707;1
198708;3
198709;1
198710;2
198711;1
198712;1
198801;2
198802;7
198803;5
198804;3
198805;4
198806;12
198807;31
198808;5
198809;35
198810;1
198811;13
198812;22
198901;41
198902;477
198903;1115
198904;527
198905;255
198906;105
198907;34
198908;0
198909;0
198910;0
198911;0
198912;0
199001;14
199002;78
199003;77
199004;93
199005;3
199006;25
199007;5
199008;0
199009;1
199010;1
199011;1
199012;1
199101;13
199102;3
199103;6
199104;1
199105;1
199106;1
199107;0
199108;0
199109;0
199110;1
199111;0
199112;0
199201;3
199202;0
199203;1
199204;4
199205;0
199206;0
199207;0
199208;0
199209;1
199210;0
199211;1
199212;0
199301;0
199302;1
199303;1
199304;0
199305;0
199306;0
199307;0
199308;0
199309;0
199310;0
199311;0
199312;0
199401;0
199402;0
199403;0
199404;0
199405;0
199406;0
199407;0
199408;0
199409;0
199410;1
199411;2
199412;3
199501;28
199502;159
199503;337
199504;253
199505;324
199506;156
199507;69
199508;32
199509;16
199510;1
199511;8
199512;38
199601;19
199602;23
199603;34
199604;466
199605;202
199606;77
199607;25
199608;2
199609;6
199610;9
199611;6
199612;4
199701;19
199702;15
199703;15
199704;37
199705;25
199706;12
199707;5
199708;2
199709;1
199710;6
199711;8
199712;45
199801;193
199802;215
199803;344
199804;422
199805;276
199806;136
199807;67
199808;23
199809;8
199810;16
199811;13
199812;11
199901;33
199902;61
199903;118
199904;3
199905;6
199906;4
199907;0
199908;0
199909;0
199910;0
199911;0
199912;0
200001;2
200002;2
200003;7
200004;1
200005;0
200006;0
200007;0
200008;0
200009;0
200010;0
200011;0
200012;0
200101;0
200102;2
200103;4
200104;0
200105;0
200106;7
200107;7
200108;7
200109;2
200110;1
200111;4
200112;0
200201;4
200202;4
200203;1
200204;1
200205;23
200206;15
200207;7
200208;0
200209;4
200210;2
200211;6
200212;19
200301;31
200302;145
200303;379
200304;846
200305;523
200306;341
200307;149
200308;46
200309;29
200310;15
200311;12
200312;13
200401;32
200402;66
200403;106
200404;89
200405;59
200406;48
200407;16
200408;6
200409;9
200410;6
200411;3
200412;6
200501;3
200502;3
200503;3
200504;2
200505;1
200506;2
200507;0
200508;0
200509;3
200510;2
200511;3
200512;0
200601;3
200602;3
200603;8
200604;14
200605;2
200606;0
200607;0
200608;0
200609;2
200610;3
200611;2
200612;2
200701;2
200702;2
200703;4
200704;7
200705;5
200706;8
200707;6
200708;2
200709;1
200710;1
200711;2
200712;6
200801;24
200802;84
200803;174
200804;32
200805;253
200806;79
200807;37
200808;14
200809;13
200810;17
200811;25
200812;127
200901;465
200902;152
200903;2572
200904;1903
200905;525
200906;152
200907;5
200908;19
200909;13
200910;6
200911;14
200912;19
201001;19
201002;2
201003;17
201004;24
201005;5
201006;9
201007;5
201008;11
201009;5
201010;2
201011;3
201012;2
201101;4
201102;4
201103;4
201104;1
201105;1
201106;0
201107;1
201108;1
201109;0
201110;0
201111;1
201112;0
201201;0
201202;7
201203;12
201204;22
201205;105
201206;6
201207;2
201208;13
201209;11
201210;3
201211;133
201212;28
201301;965
201302;2158
201303;2806
201304;2471
201305;1578
201306;37
201307;117
201308;33
201309;8
201310;2
201311;4
201312;35
201401;16
201402;52
201403;56
201404;109
201405;49
201406;12
201407;3
201408;5
201409;4
201410;1
201411;6
201412;3
201501;3
201502;6
201503;4
201504;6
201505;2
201506;1
201507;0
201508;1
201509;0
201510;1
201511;1
201512;1
201601;2
201602;27
201603;22
201604;64
201605;129
201606;138
201607;89
201608;56
201609;26
201610;19
201611;36
201612;86
201701;383
201702;638
201703;1108
201704;871
201705;76
201706;411
201707;181
201708;35
201709;15
201710;6
201711;9
201712;14
201801;38
201802;132
201803;279
201804;418
201805;453
201806;244
201807;14
201808;53
201809;33
201810;25
201811;43
201812;142
201901;437
201902;693
201903;968
201904;92
201905;557
201906;227
201907;67
201908;23
201909;9
201910;7
201911;4
201912;6
202001;9
