date,temperature
2022-07-17,19.7
2022-07-18,22.4
2022-07-19,21.3
2022-07-20,20.5
2022-07-21,20.6
2022-07-22,20.9
2022-07-23,19.0
2022-07-24,19.9
2022-07-25,20.6
2022-07-26,19.1
2022-07-27,21.4
2022-07-28,20.0
2022-07-29,19.6
2022-07-30,19.3
2022-07-31,20.6
2022-08-01,20.3
2022-08-02,22.7
2022-08-03,22.0
2022-08-04,21.3
2022-08-05,20.2
2022-08-07,21.5
2022-08-08,20.9
2022-08-09,21.3
2022-08-10,21.3
2022-08-11,23.8
2022-08-12,23.2
2022-08-13,21.1
2022-08-14,20.8
