country;transmission;start_month;end_month;iso
afghanistan;;;;AFG
american samoa;;january;june;ASM
angola;year-round;;;AGO
anguilla;;;;AIA
antigua and barbuda;;;;ATG
argentina;;;;ARG
aruba, bonaire, curacao;year-round;;;ABW
australia;;;;AUS
bahamas;;;;BHS
bangladesh;year-round;june;september;BGD
barbados;;;;BRB
belize;;;;BLZ
benin;;;;BEN
bermuda;;;;BMU
bhutan;year-round;july;september;BTN
bolivia;year-round;;;BOL
brazil;;january;may;BRA
brunei darussalam;year-round;;;BRN
burkina faso;year-round;;;BFA
cabo verde;;;;CPV
cambodia;year-round;may;october;KHM
cameroon;;;;CMR
cayman islands;year-round;;;CYM
central african republic;;;;CAF
chad;;;;TCD
chile;;;;CHL
china;;june;november;CHN
colombia;year-round;may;november;COL
comoros;;;;COM
congo - democratic republic;;;;COD
congo - republic;;;;COG
cook islands;year-round;january;june;COK
costa rica;year-round;may;november;CRI
cote d'ivoire;year-round;;;CIV
cuba;year-round;;;CUB
djibouti;;;;DJI
dominica;;;;DMA
dominican republic;year-round;;;DOM
ecuador;year-round;january;september;ECU
egypt;;;;EGY
el salvador;year-round;may;november;SLV
equatorial guinea;;;;GNQ
eritrea;;;;ERI
ethiopia;;;;ETH
fiji;year-round;january;june;FJI
france;;;;FRA
french guiana;year-round;;;GUF
french polynesia;;august;november;PYF
gabon;;;;GAB
gambia;;;;GMB
ghana;;;;GHA
grenada;year-round;;;GRD
guadeloupe;year-round;july;january;GLP
guatemala;year-round;may;november;GTM
guinea;;;;GIN
guyana;year-round;;;GUY
haiti;;;;HTI
honduras;year-round;october;february;HND
india;year-round;;;IND
indonesia;;;;IDN
jamaica;year-round;;;JAM
kenya;year-round;april;october;KEN
kiribati;;;;KIR
laos;year-round;may;october;LAO
liberia;;;;LBR
madagascar;;;;MDG
malawi;;;;MWI
malaysia;;;;MYS
maldives;;april;september;MDV
mali;year-round;;;MLI
marshall islands;;;;MHL
martinique;year-round;july;january;MTQ
mauritania;year-round;;;MRT
mauritius;year-round;march;may;MUS
mayotte;year-round;april;july;MYT
mexico;;;;MEX
micronesia;;;;FSM
montserrat;;;;MSR
mozambique;;;;MOZ
myanmar | burma;;may;october;MMR
namibia;;;;NAM
nauru;;;;NRU
nepal;;;;NPL
new caledonia;year-round;february;may;NCL
nicaragua;year-round;;;NIC
niger;;;;NER
nigeria;;;;NGA
niue;;;;NIU
pakistan;;;;PAK
palau;year-round;;;PLW
panama;year-round;may;february;PAN
papua new guinea;;;;PNG
paraguay;year-round;;;PRY
peru;year-round;january;july;PER
philippines;year-round;;;PHL
puerto rico;year-round;;;PRI
reunion;year-round;february;july;REU
saba and sint eustatius;;;;BQ
saint barthelemy;;;;BL
saint kitts and nevis;;;;KNA
saint lucia;year-round;june;november;LCA
saint martin;year-round;;;MAF
saint vincent and the grenadines;;;;VCT
samoa;;;;WSM
saudi arabia;year-round;april;september;SAU
senegal;year-round;;;SEN
seychelles;year-round;;;SYC
sierra leone;;;;SLE
singapore;year-round;september;february;SGP
sint maarten;;;;SXM
solomon islands;;;;SLB
somalia;;;;SOM
south sudan;;;;SSD
sri lanka;year-round;may;july;LKA
sudan;year-round;;;SDN
suriname;year-round;august;october;SUR
taiwan;year-round;;;XX1
tanzania;year-round;;;TZA
thailand;;;;THA
timor-leste;year-round;;;TLS
togo;;;;TGO
tonga;year-round;;;TON
trinidad and tobago;year-round;;;TTO
turks and caicos;;;;TCA
tuvalu;;;;TUV
uganda;;;;UGA
united states of america;;;;USA
vanuatu;;november;april;VUT
venezuela;year-round;;;VEN
vietnam;year-round;;;VNM
virgin islands - uk;year-round;;;VGB
virgin islands - us;;;;VIR
wallis and futuna;;;;WLF
yemen;year-round;;;YEM
zambia;;;;ZMB
zimbabwe;;;;ZWE
