time,air temperature,relative humidity,precipitation rate
1979-01-01,26.870646,83.43741999999997,8.612572e-05
1979-02-01,27.686434,79.983215,5.6432054e-05
1979-03-01,27.9258,79.09871,5.259669e-05
1979-04-01,26.675995,77.935005,6.0069917e-05
1979-05-01,25.81709,79.33258000000002,3.9296683e-05
1979-06-01,25.267994,83.94334,3.2063246e-05
1979-07-01,23.661617,74.68741999999997,9.422483e-06
1979-08-01,23.913542,75.3729,9.470868e-06
1979-09-01,24.524332,79.985,3.3176573e-05
1979-10-01,25.429996,77.59871,2.3609584e-05
1979-11-01,25.873663,79.27666500000002,4.3673263e-05
1979-12-01,26.230326,75.977745,2.7854747e-05
1980-01-01,27.13193,80.421295,6.165798000000001e-05
1980-02-01,28.214134,79.57034,6.216199e-05
1980-03-01,27.805483,79.52613000000002,6.7941866e-05
1980-04-01,26.739328000000004,83.810005,8.291325e-05
1980-05-01,24.81967,77.83258000000002,1.4477319e-05
1980-06-01,24.720997,79.00166999999998,1.39365675e-05
1980-07-01,23.995806,73.01807,4.8482775e-06
1980-08-01,23.412256,79.340645,2.2299895000000006e-05
1980-09-01,24.631329,83.985,2.3523246e-05
1980-10-01,25.367414,81.55032,1.0967645e-05
1980-11-01,26.000328,79.46,2.7463244e-05
1980-12-01,26.447088,77.8971,2.8799912e-05
1981-01-01,27.588701,81.44549,6.352895999999999e-05
1981-02-01,27.383215000000003,81.501076,8.976064e-05
1981-03-01,27.453224,78.45355,6.9948306e-05
1981-04-01,26.87033,79.16,9.818992e-05
1981-05-01,25.93,79.66323,1.9886997e-05
1981-06-01,25.232996,77.51833,5.9832196e-06
1981-07-01,23.45677,77.171295,2.257954e-06
1981-08-01,23.487417,78.6229,1.0574086e-05
1981-09-01,23.691336,78.035,4.826564e-06
1981-10-01,24.463228,79.534195,1.9806363e-05
1981-11-01,25.726,82.41,3.295658e-05
1981-12-01,27.182573,82.06645,3.4912828e-05
1982-01-01,27.846128000000004,80.54226,0.00012464185
1982-02-01,27.50643,80.9475,5.6224915e-05
1982-03-01,27.523539000000003,81.3971,8.330639e-05
1982-04-01,26.875324,81.21834,8.402991e-05
1982-05-01,26.037737,78.05839,1.0228941e-05
1982-06-01,25.411995,78.82667,1.2266566e-05
1982-07-01,24.64387,81.52613000000002,1.6609589999999994e-05
1982-08-01,23.582254,81.27613000000002,2.348055e-05
1982-09-01,23.148994,79.92667,5.5832325e-06
1982-10-01,24.482578,82.034195,2.990214e-06
1982-11-01,25.46433,83.77666500000002,3.6626567e-05
1982-12-01,25.865162,78.6229,3.1345073000000005e-05
1983-01-01,26.767740000000003,81.30839,6.879023e-05
1983-02-01,27.043568,82.402855,4.01249e-05
1983-03-01,26.663218,85.09871,8.9216046e-05
1983-04-01,26.181662,79.46834,1.17932295e-05
1983-05-01,25.6158,74.91323,8.740838000000002e-07
1983-06-01,24.903328,78.435005,2.8232269e-06
1983-07-01,23.816446,77.81645,1.3090227e-05
1983-08-01,23.54742,79.49387,3.4515115e-06
1983-09-01,23.92266,76.01833,2.2065592e-06
1983-10-01,24.706776,79.38903,1.4545066e-05
1983-11-01,26.018665,79.785,3.2799915e-05
1983-12-01,27.044191,81.74387,7.712895000000001e-05
1984-01-01,27.306128,79.70355,6.677089e-05
1984-02-01,27.837929,81.16518,6.4382686e-05
1984-03-01,27.48482700000001,80.35677,7.71838e-05
1984-04-01,27.091663,80.87666999999998,7.812659e-05
1984-05-01,26.309671,83.44549,2.20096e-05
1984-06-01,25.313332,83.51,2.2799924e-05
1984-07-01,24.278059,79.57451999999998,1.5732165e-05
1984-08-01,24.630964,76.1229,3.0170871000000014e-05
1984-09-01,24.652,75.92667,1.7669898e-05
1984-10-01,24.692253,76.77613000000002,1.2996674e-05
1984-11-01,25.703331,81.66,2.3359906e-05
1984-12-01,27.326452000000003,80.51,5.4648302e-05
1985-01-01,27.329027000000004,77.95355,6.8180554e-05
1985-02-01,27.796783,80.608215,6.533922e-05
1985-03-01,27.2229,82.71968000000003,0.00013589347
1985-04-01,26.760998,80.835,5.2656582e-05
1985-05-01,25.43935,78.19549,3.3354747e-05
1985-06-01,24.219332,77.99333,1.0846571e-05
1985-07-01,24.01871,80.44549,1.4038614e-05
1985-08-01,24.020971,79.81645,4.3998984e-06
1985-09-01,24.454002,76.87666999999998,1.3913229999999995e-05
1985-10-01,25.639994,79.42936,3.643217500000001e-05
1985-11-01,26.35333300000001,78.985,2.7643237e-05
1985-12-01,26.962252000000003,76.88096999999998,3.5096687000000003e-05
1986-01-01,27.54548,78.55839,7.1209586e-05
1986-02-01,27.756435,78.51,5.9435635e-05
1986-03-01,27.814192,78.96162,5.5512835e-05
1986-04-01,26.492332,83.543335,0.0001301066
1986-05-01,24.810001,79.75194,2.5877323e-05
1986-06-01,24.666328,76.11833,2.3723238e-05
1986-07-01,22.651293,75.36484,3.0160206e-06
1986-08-01,22.784195,78.55839,1.2819257e-05
1986-09-01,23.543331,76.810005,6.30323e-06
1986-10-01,24.828064,74.96968000000003,2.1869932000000003e-06
1986-11-01,25.883333,77.01,8.316563e-06
1986-12-01,26.687416,85.65517,7.627413e-05
1987-01-01,27.265806,76.55032,1.5870879e-05
1987-02-01,27.838568,81.885,7.139278e-05
1987-03-01,27.574831,77.81645,6.02967e-05
1987-04-01,26.805332,78.86833,3.144325e-05
1987-05-01,24.682257,78.70355,3.018378e-05
1987-06-01,23.673332,76.55167,4.3832310000000005e-06
1987-07-01,22.752903,75.46162,2.0902107e-06
1987-08-01,22.897417,79.76,5.757962e-06
1987-09-01,23.002666,73.99333,2.0655183e-07
1987-10-01,24.440638,80.00194,8.054739e-06
1987-11-01,25.886995,81.90166500000002,3.4253237e-05
1987-12-01,26.680967,84.340645,8.2132174e-05
1988-01-01,27.51451500000001,82.8729,7.8183795e-05
1988-02-01,28.286543,82.87207,0.0001096689
1988-03-01,27.307419,83.27613000000002,6.592573e-05
1988-04-01,27.053331,82.885,7.525659e-05
1988-05-01,26.575155,81.23581,4.695476e-05
1988-06-01,25.665997,81.810005,2.8086586e-05
1988-07-01,24.366127,81.99387,3.276766e-05
1988-08-01,24.000647,79.73581,4.3482773e-06
1988-09-01,24.85733,78.99333,3.3419914e-05
1988-10-01,25.429356,77.52613000000002,2.3119264e-05
1988-11-01,26.073658,75.86833,1.8236577e-05
1988-12-01,27.068382,76.671295,9.0228954e-05
1989-01-01,27.65677,75.85677,7.517734e-05
1989-02-01,27.607136,80.313576,0.00014512493
1989-03-01,27.41387000000001,78.30839,7.454188e-05
1989-04-01,26.606329,79.385,7.851658e-05
1989-05-01,25.796122,80.340645,4.8538634e-05
1989-06-01,24.804663,79.57667,9.40323e-06
1989-07-01,23.91,79.05032,1.0764414e-05
1989-08-01,24.1058,77.32451999999998,1.1416025e-05
1989-09-01,24.81666400000001,77.75166999999998,1.6116568e-05
1989-10-01,25.255804,83.04226,3.142894e-05
1989-11-01,26.167328,75.91,4.158325e-05
1989-12-01,26.396763,79.80839,4.3493463e-05
1990-01-01,27.431284,79.01807,6.656766e-05
1990-02-01,27.268566,78.858215,8.371777e-05
1990-03-01,27.177738,79.96968000000003,0.00011829024
1990-04-01,26.121332,79.543335,4.2556574e-05
1990-05-01,25.769354,82.02613000000002,4.3693457e-05
1990-06-01,25.26066,78.25166999999998,1.34565635e-05
1990-07-01,24.185806,76.21162,2.162893e-05
1990-08-01,24.52193,81.71968000000003,1.6703135999999998e-05
1990-09-01,24.692995,81.09334,1.8149902e-05
1990-10-01,25.035158,77.69549,1.3912810999999993e-05
1990-11-01,26.569996000000003,81.85167,6.915327e-05
1990-12-01,26.771282,79.15517,6.370314e-05
1991-01-01,27.377737,81.96968000000003,0.000110735404
1991-02-01,27.584637,82.527855,8.844278e-05
1991-03-01,27.828703000000004,81.21162,0.00010595154
1991-04-01,27.170994,81.16,5.3196596e-05
1991-05-01,25.747093,76.91323,3.1035386e-05
1991-06-01,24.463999,74.51,3.5732287000000007e-06
1991-07-01,24.559677,80.02613000000002,9.719245e-06
1991-08-01,24.096775,80.13903,1.1383773e-05
1991-09-01,23.820333,77.55167,2.7883232e-05
1991-10-01,24.928703,80.840645,2.0667647e-05
1991-11-01,25.628668,81.560005,2.6396585e-05
1991-12-01,26.38677,79.94549,4.187735e-05
1992-01-01,26.97225,78.04226,6.729671e-05
1992-02-01,27.468267,78.828964,8.553785e-05
1992-03-01,27.297096000000003,81.18741999999997,0.0001201225
1992-04-01,26.073336,82.32667,4.094659e-05
1992-05-01,24.959032,78.65517,1.9106354e-05
1992-06-01,25.323334,83.77666500000002,2.5203242e-05
1992-07-01,24.327417,82.21162,1.9645055e-05
1992-08-01,23.397743,76.29226,1.209022e-05
1992-09-01,24.416002,77.335,5.309897e-06
1992-10-01,24.650963,80.69549,4.8651524e-05
1992-11-01,24.925999,78.14333,2.0223251e-05
1992-12-01,25.895157,83.80032,0.000104122504
1993-01-01,25.515158,81.3971,5.8954745e-05
1993-02-01,26.127857,82.76893000000003,5.476422e-05
1993-03-01,26.879673,83.67936,9.153218e-05
1993-04-01,26.09800000000001,82.35167,6.529658e-05
1993-05-01,25.4787,81.51,3.0209596e-05
1993-06-01,24.733667,79.64333,1.6696566e-05
1993-07-01,22.813225,77.79226,8.006355e-06
1993-08-01,22.712576,79.69549,1.9509578e-05
1993-09-01,22.751337,76.85167,5.869893400000003e-06
1993-10-01,23.6329,76.80032,2.8450552000000006e-06
1993-11-01,25.897333,80.585,1.1773237e-05
1993-12-01,26.665157,78.921295,3.0664432000000005e-05
1994-01-01,26.861286,82.01807,8.418379999999999e-05
1994-02-01,27.537848,80.41179,6.794635e-05
1994-03-01,27.410961,82.69549,0.00010126444
1994-04-01,26.227333,80.62666999999998,2.8786582e-05
1994-05-01,24.764187,78.34871,7.461185799999997e-06
1994-06-01,22.943,77.235,1.0669891e-05
1994-07-01,22.829672,79.13096999999998,5.774095e-06
1994-08-01,22.984512,78.590645,8.805354e-07
1994-09-01,22.617998,76.85167,5.5398946e-06
1994-10-01,23.829033,75.45355,1.0031096e-06
1994-11-01,25.604662,80.335,3.5763253e-05
1994-12-01,26.161928,79.96162,3.5454759999999995e-05
1995-01-01,26.629677,82.26807,5.452896e-05
1995-02-01,27.29714,77.858215,4.877491e-05
1995-03-01,27.66064,80.27613000000002,7.8635414e-05
1995-04-01,26.981665000000003,80.87666999999998,0.000109783265
1995-05-01,25.145485,75.21162,1.7441831e-05
1995-06-01,24.485327,77.55167,5.179892e-06
1995-07-01,24.27645,82.27613000000002,7.012799e-06
1995-08-01,23.727095,78.19549,8.906351e-06
1995-09-01,24.325335,81.35167,2.1583237e-05
1995-10-01,25.15709,77.46968000000003,1.3483764e-05
1995-11-01,26.147997,79.10167,2.6509902e-05
1995-12-01,26.91161,75.671295,3.5283778e-05
1996-01-01,27.150644,79.81645,9.2416056e-05
1996-02-01,27.394485,79.6738,4.399991e-05
1996-03-01,27.402248,81.85677,6.0699924e-05
1996-04-01,27.14233,78.97667,6.698326e-05
1996-05-01,25.117409,79.06645,2.4432165e-05
1996-06-01,24.670326,81.81834,2.8243234e-05
1996-07-01,24.327742,79.40517,6.1450614e-06
1996-08-01,23.305164,75.88903,5.4869847e-06
1996-09-01,24.552334,79.35167,1.3146565e-05
1996-10-01,24.617418,79.00194,2.8857976e-05
1996-11-01,25.983335,80.735,2.386989e-05
1996-12-01,27.217417,80.1229,6.193218e-05
1997-01-01,27.418383,79.755806,8.281927e-05
1997-02-01,27.36464,80.56,6.62785e-05
1997-03-01,27.52516,79.68355,0.00012252251
1997-04-01,26.670336,79.122665,6.0969924e-05
1997-05-01,25.180317,77.45,5.112249e-05
1997-06-01,23.581003,78.25667,1.41465725e-05
1997-07-01,23.039677,79.40839,2.2293443000000007e-05
1997-08-01,22.790974,78.84676999999998,8.254739999999997e-06
1997-09-01,22.490671,79.191,1.30232265e-05
1997-10-01,24.33774,81.51613,1.9851508e-05
1997-11-01,25.314333,79.27367,1.2646569e-05
1997-12-01,26.47161,81.09548000000002,3.3874109999999995e-05
1998-01-01,26.90645,83.59548000000002,9.5074116e-05
1998-02-01,26.979998,79.96285,5.478565e-05
1998-03-01,27.54226,83.21645,6.675798000000001e-05
1998-04-01,26.833,80.43966999999998,1.7236569e-05
1998-05-01,25.82129500000001,76.47419000000002,5.222474e-06
1998-06-01,24.912,80.133,9.786562e-06
1998-07-01,23.418713,79.103546,8.293450000000001e-06
1998-08-01,23.998713,82.7729,3.5192502e-06
1998-09-01,23.905663,82.798996,2.9089908e-05
1998-10-01,25.386776,81.021614,9.109574e-06
1998-11-01,26.858671,83.730995,3.4486588e-05
1998-12-01,27.852905,81.020645,9.01096e-05
1999-01-01,27.473225,81.31806,0.000100516045
1999-02-01,27.14,82.41643,0.00013680708
1999-03-01,27.637415,78.90742,6.3825726e-05
1999-04-01,27.517,80.412994,8.155993000000001e-05
1999-05-01,26.029032,78.48806,3.9719278e-05
1999-06-01,24.941671,80.365,3.5653247e-05
1999-07-01,24.699999,81.89451600000002,1.20741015e-05
1999-08-01,24.09355,83.63517,3.849347000000001e-05
1999-09-01,25.320671,80.723,5.0039922e-05
1999-10-01,25.110325,79.159676,7.036444000000001e-05
1999-11-01,26.084663,80.913666,6.944326e-05
1999-12-01,27.03129,80.85161,6.574831e-05
2000-01-01,27.759354,80.63225600000001,7.796766e-05
2000-02-01,28.107588,77.99655,9.4127514e-05
2000-03-01,27.712255,79.75161999999997,8.188379e-05
2000-04-01,26.98166,81.78734,0.00014302992
2000-05-01,26.225483,81.33613000000003,0.000105061205
2000-06-01,25.515667,81.246666,3.8429916e-05
2000-07-01,24.709032,79.44129000000002,4.2606363e-05
2000-08-01,24.37774,82.05516,2.2532178e-05
2000-09-01,24.964666,80.50766999999998,3.642658e-05
2000-10-01,24.900644,81.41839,6.422573e-05
2000-11-01,26.339,81.89933,2.5319921e-05
2000-12-01,26.735807,80.82129,7.0616035e-05
2001-01-01,27.755804,80.07,8.127411999999999e-05
2001-02-01,28.081789,79.13821,7.805706999999999e-05
2001-03-01,27.375805,81.14095999999998,8.968057e-05
2001-04-01,27.310667,81.92967,0.00011219992
2001-05-01,26.822899,78.79484000000002,4.1916042e-05
2001-06-01,24.873333,80.089,6.477992e-05
2001-07-01,24.230965,80.8929,1.4570865e-05
2001-08-01,24.207743,80.32935,2.062893e-05
2001-09-01,24.312336,81.00733000000002,1.6849906000000006e-05
2001-10-01,25.23258,78.89386999999998,2.099346e-05
2001-11-01,26.209003,80.27367,3.6376583e-05
2001-12-01,26.729033,82.369675,9.777412e-05
2002-01-01,28.125807,80.80645,9.9587036e-05
2002-02-01,28.096786,82.80357,0.00013946062
2002-03-01,27.5729,81.59676999999998,5.7090238e-05
2002-04-01,27.513334000000004,80.958336,0.00010764327
2002-05-01,26.848064,79.66936,5.5687015e-05
2002-06-01,25.719336,78.833336,1.7769906e-05
2002-07-01,24.637096,81.6129,3.1493462e-05
2002-08-01,23.768066,81.04032,3.7557973e-05
2002-09-01,24.654333,81.60833000000002,9.256571e-06
2002-10-01,24.86742000000001,82.53226,2.0316036e-05
2002-11-01,25.627338,81.95,1.8769913e-05
2002-12-01,26.469032,82.53226,1.9283778e-05
2003-01-01,27.631937,83.98387,8.597412000000001e-05
2003-02-01,27.430716,78.29464,5.8699905e-05
2003-03-01,27.720322,81.16129000000002,0.000100693476
2003-04-01,27.396666,80.058334,7.336659e-05
2003-05-01,26.820969,80.314514,7.3596704e-05
2003-06-01,24.859661,77.76666999999998,1.8499908e-05
2003-07-01,24.110647,79.3629,2.0774089e-05
2003-08-01,23.249683,75.08064,1.027731e-05
2003-09-01,23.852667,76.375,4.4598864e-06
2003-10-01,24.729355,76.05645,1.1086989999999997e-05
2003-11-01,25.571333,78.59167,3.3589888e-05
2003-12-01,26.784834000000004,84.258064,8.489991e-05
2004-01-01,27.11774,75.241936,3.0283749e-05
2004-02-01,28.006205,80.55173,9.937921e-05
2004-03-01,27.824835,79.25,7.5248296e-05
2004-04-01,26.800999,81.01666999999998,9.1663234e-05
2004-05-01,26.1071,75.685486,2.3886989e-05
2004-06-01,25.766336,82.816666,5.8203237e-05
2004-07-01,24.739353,79.07258,3.2590229999999994e-05
2004-08-01,24.449678,80.629036,4.12967e-05
2004-09-01,24.196672,77.14166999999998,1.6439892e-05
2004-10-01,25.295162,81.52419,1.8351517e-05
2004-11-01,25.822329,78.075,2.0349902e-05
2004-12-01,27.055483,83.41129000000002,4.9077335e-05
2005-01-01,27.83161,81.879036,5.9306374e-05
2005-02-01,27.786432,79.48214,7.148207e-05
2005-03-01,27.815483,80.92742,5.9593483e-05
2005-04-01,27.422997,81.333336,0.000111296584
2005-05-01,26.070318,79.741936,1.6648262e-05
2005-06-01,24.779,73.9,2.003656e-05
2005-07-01,23.729359,77.92742,8.983755e-06
2005-08-01,23.196774,75.44355,5.438601e-06
2005-09-01,24.461002,82.15,2.879323400000001e-05
2005-10-01,25.573553,79.21774,2.711925000000001e-05
2005-11-01,26.236328000000004,82.025,4.451657500000001e-05
2005-12-01,26.877094,79.58870999999998,2.4941817e-05
2006-01-01,27.452255,81.03226,9.29999e-05
2006-02-01,27.685354,81.85714,0.00011589278
2006-03-01,28.036127,80.20968,3.9838622e-05
2006-04-01,27.744665,76.88333,6.533322e-05
2006-05-01,26.830322,74.77419,4.347732e-05
2006-06-01,25.151003,75.51666999999998,1.5749883e-05
2006-07-01,23.200315,74.8871,1.1157958e-05
2006-08-01,23.87129,81.16936,1.3470845e-05
2006-09-01,24.413334,82.825,2.1709897e-05
2006-10-01,24.484522,84.6129,3.3712797e-05
2006-11-01,25.744667,83.48333000000002,1.7549904e-05
2006-12-01,26.4271,80.870964,4.111602e-05
2007-01-01,27.35193,81.048386,2.6203114e-05
2007-02-01,27.502142,83.27679,7.332134e-05
2007-03-01,27.340643,84.34676999999998,0.000113125716
2007-04-01,27.042665000000003,80.825,4.820656e-05
2007-05-01,25.833872,77.20968,3.701278e-05
2007-06-01,25.844,80.14166999999998,8.329889e-06
2007-07-01,25.02355,78.6371,2.4928913e-05
2007-08-01,25.066772,81.03226,2.0690202e-05
2007-09-01,25.870998,84.49167,7.235657e-05
2007-10-01,26.326773,83.85483599999998,7.855795e-05
2007-11-01,26.429005,82.46667,8.441325000000001e-05
2007-12-01,26.889675,82.951614,0.000103632156
2008-01-01,27.162899,82.758064,0.00018783541
2008-02-01,27.772415,81.094826,9.853096e-05
2008-03-01,27.585808,79.435486,7.343541999999999e-05
2008-04-01,27.453333,79.8,0.00011714661
2008-05-01,25.939674,76.241936,6.7854744e-05
2008-06-01,25.434,82.458336,7.076658e-05
2008-07-01,24.514193,79.45968,1.7445069000000002e-05
2008-08-01,24.988062,80.798386,2.3267652e-05
2008-09-01,25.154663,79.2,2.2056567e-05
2008-10-01,25.52032,83.129036,1.29256905e-05
2008-11-01,26.55033,78.84167,6.4369895e-05
2008-12-01,27.552578000000004,78.951614,5.054829300000001e-05
2009-01-01,27.281937,81.33870999999998,0.00013782574
2009-02-01,27.231783,80.53571,6.153918000000001e-05
2009-03-01,27.41548,81.70968,7.999023e-05
2009-04-01,26.862669,81.25,4.8939906e-05
2009-05-01,25.654516,79.42742,3.743538e-05
2009-06-01,24.315666,81.15833,3.2196553e-05
2009-07-01,23.83387,82.629036,1.4022457999999993e-05
2009-08-01,23.47258,81.46774,2.4986979e-05
2009-09-01,23.757002,82.21667,2.4329847e-05
2009-10-01,23.775476,79.5,8.912704e-06
2009-11-01,24.237667,83.63333,1.1399822999999995e-05
2009-12-01,25.295483,82.0,6.0354676e-05
2010-01-01,26.428709,84.33870999999998,1.7770813e-05
2010-02-01,26.917147,82.90179,7.0882015e-05
2010-03-01,26.801933,83.73387,5.9648246e-05
2010-04-01,26.742662,83.208336,5.0639857e-05
2010-05-01,26.599676,83.35483599999998,3.3841785e-05
2010-06-01,26.732664,83.84167,2.7739854e-05
2010-07-01,24.600647,78.33870999999998,1.9928846e-05
2010-08-01,24.918066,82.508064,4.09661e-06
2010-09-01,25.342003,80.76666999999998,5.529820999999998e-06
2010-10-01,25.707094,82.41129000000002,8.072891e-05
2010-11-01,25.78466400000001,84.933334,6.92732e-05
2010-12-01,26.256775,82.201614,7.2616e-05
2011-01-01,26.944197,82.55645,0.0001038289
2011-02-01,27.20464,79.58036,9.063917e-05
2011-03-01,27.44258300000001,77.798386,8.195796e-05
2011-04-01,27.399332,81.1,6.307986999999999e-05
2011-05-01,27.069353000000003,80.51613,6.742566600000001e-05
2011-06-01,26.034,80.2,5.256318e-05
2011-07-01,25.081293,79.09676999999998,3.4315955e-05
2011-08-01,24.194838,80.35483599999998,2.0090183e-05
2011-09-01,24.611,79.88333,2.716317e-05
2011-10-01,25.67839,82.91936,3.660308e-05
2011-11-01,25.983004,83.90833,9.07332e-05
2011-12-01,26.973227,81.3871,3.3941782e-05
2012-01-01,27.215157,82.47581,0.00013141283
2012-02-01,26.799313,82.48276,0.00013187925
2012-03-01,27.432579,81.064514,0.000108551525
2012-04-01,26.921335,79.88333,0.000101029924
2012-05-01,25.477419,78.66129000000002,4.798701e-05
2012-06-01,24.813007,81.59167,1.6193238e-05
2012-07-01,24.155807,80.83064,7.028932e-06
2012-08-01,24.46452,81.46774,1.4386996e-05
2012-09-01,24.83,83.35,3.1359912e-05
2012-10-01,25.458067,83.008064,2.257728700000001e-05
2012-11-01,25.813,82.183334,3.8323193e-05
2012-12-01,26.469034000000004,85.05645,7.006436e-05
2013-01-01,27.230965,82.08064,6.936116999999999e-05
2013-02-01,27.065,82.34821,0.00011581416
2013-03-01,27.23516,84.451614,0.00017532571
2013-04-01,27.334997,81.558334,5.488986999999999e-05
2013-05-01,25.961933,82.84676999999998,3.212888e-05
2013-06-01,25.292002,84.775,3.0699845000000004e-05
2013-07-01,24.191618,81.53226,2.6432077e-05
2013-08-01,24.108393,83.879036,3.5096615e-05
2013-09-01,24.445335,79.88333,2.0729827e-05
2013-10-01,24.92645,82.32258,4.4025644e-05
2013-11-01,26.391327,84.63333,7.5463206e-05
2013-12-01,26.883547,83.16936,0.000112622474
2014-01-01,27.437414,82.758064,7.598696999999999e-05
2014-02-01,27.514645,83.16071,0.00010435346
2014-03-01,27.190966,82.3871,0.00010873213
2014-04-01,26.48,79.916664,6.548653e-05
2014-05-01,25.342579,80.548386,4.3577274e-05
2014-06-01,24.718666,82.8,7.779842e-06
2014-07-01,22.599998,79.80645,1.1109521e-05
2014-08-01,23.03613,80.66936,4.712733e-06
2014-09-01,24.360006,82.333336,9.279799e-06
2014-10-01,24.8087,85.57258,4.8453137e-05
2014-11-01,25.164986,82.35833000000002,3.0933337e-05
2014-12-01,26.165306,84.1371,0.00010099194
2015-01-01,27.054024,82.40323000000002,6.6209686e-05
2015-02-01,27.692840000000004,84.13393,9.73482e-05
2015-03-01,27.4895,82.04032,9.886291e-05
2015-04-01,26.050823,80.01666999999998,5.230834e-05
2015-05-01,24.957254,80.77419,2.2669356e-05
2015-06-01,23.614157,83.65,2.4916666e-05
2015-07-01,23.14919,81.82258,2.0645160000000003e-06
2015-08-01,22.479025,84.25,2.4806452e-05
2015-09-01,23.402494,83.825,2.4241666e-05
2015-10-01,24.008856,80.701614,5.6774197000000025e-06
2015-11-01,25.817486,82.725,3.935e-05
2015-12-01,26.179016,84.241936,5.3008065e-05
2016-01-01,27.130632,85.685486,5.0040322e-05
2016-02-01,28.521538,81.913795,0.00012983618999999998
2016-03-01,27.359667,85.879036,8.8241926e-05
2016-04-01,26.282492,86.25833,7.194167e-05
2016-05-01,25.24434500000001,80.3871,3.8330643e-05
2016-06-01,24.89749,81.941666,1.345e-05
2016-07-01,23.816929,82.26613,1.3338709e-05
2016-08-01,23.453215,86.008064,4.843548200000001e-05
2016-09-01,23.596657,80.88333,4.125e-06
2016-10-01,25.151598,82.71774,2.3967743e-05
2016-11-01,26.150816,82.86667,1.9791665e-05
2016-12-01,26.624187,84.76613,0.00011126613
2017-01-01,26.929825,81.44355,6.0870974e-05
2017-02-01,27.142838,84.61607,0.00016036608
2017-03-01,27.087086,84.298386,7.524194e-05
2017-04-01,26.894993,82.208336,4.478333e-05
2017-05-01,26.23709,85.01613,7.685484e-05
2017-06-01,25.161663,82.875,1.6683334e-05
2017-07-01,23.710478,80.379036,3.5725807e-06
2017-08-01,24.058058,83.16129000000002,3.543549e-05
2017-09-01,24.703321,82.225,1.8166666e-05
2017-10-01,25.489498,81.66129000000002,3.0540326e-05
2017-11-01,25.924152,86.416664,9.447499e-05
2017-12-01,26.367722,83.129036,8.869354499999999e-05
2018-01-01,26.999174,83.65323000000002,5.0491937e-05
2018-02-01,27.422312,83.8125,0.00015383035
2018-03-01,27.418531,82.185486,0.00013193548
2018-04-01,26.537487,83.24167,0.000117091666
2018-05-01,25.206444,80.80645,3.5185483e-05
2018-06-01,24.657492,85.21667,3.2408334e-05
2018-07-01,23.354027,83.17742,1.2629032e-05
2018-08-01,22.947577,80.33870999999998,5.4758066e-06
2018-09-01,24.738333,84.71667,3.5216664e-05
2018-10-01,25.358852,84.8629,9.449999e-05
2018-11-01,25.613323,81.05,3.3525e-05
2018-12-01,27.245955,80.94355,8.152419e-05
2019-01-01,27.195145,86.64516400000002,0.000106306456
2019-02-01,28.35802,81.00893,0.00010928572
2019-03-01,27.087086,81.08870999999998,0.00014077418
2019-04-01,27.351652,84.416664,0.000137375
2019-05-01,25.215315,81.96774,1.8483868e-05
2019-06-01,24.91166,81.73333000000002,3.0983334e-05
2019-07-01,24.151606,83.758064,3.857258e-05
2019-08-01,24.007252,83.41129000000002,2.4322582e-05
2019-09-01,23.969158,80.99167,3.4308334e-05
2019-10-01,25.338694,83.8629,8.433870000000001e-05
2019-11-01,25.902485,77.625,3.0083336e-05
2019-12-01,27.437084,81.03226,6.902419399999999e-05
2020-01-01,27.120949,81.08064,6.212904e-05
2020-02-01,27.646538,80.81035,7.318104e-05
2020-03-01,27.68870200000001,82.80645,0.0001112742
2020-04-01,27.322483,83.60833000000002,0.000130925
2020-05-01,26.375793,80.491936,5.395161e-05
2020-06-01,25.154997,85.05,4.7641668e-05
2020-07-01,24.349993,83.27419,2.9677420000000013e-05
2020-08-01,24.457249,84.29032,2.3758066e-05
2020-09-01,24.250826,82.375,3.665833e-05
2020-10-01,25.346764,83.879036,4.644354999999999e-05
2020-11-01,26.514986,82.6,5.9341666e-05
2020-12-01,26.640306,85.35483599999998,6.854839e-05
2021-01-01,27.433054,84.73387,0.00016123387
2021-02-01,27.41606,84.70536,0.000116098214
2021-03-01,26.84515,82.314514,6.775001000000001e-05
2021-04-01,27.33082000000001,81.65,7.059167e-05
2021-05-01,26.190315,80.27419,7.510484000000001e-05
2021-06-01,24.141657,81.51666999999998,1.9916666e-05
2021-07-01,24.217737,84.72581,2.3717743e-05
2021-08-01,22.859669,80.5,2.365322700000001e-05
2021-09-01,24.82083,82.64166999999998,4.2050004e-05
2021-10-01,25.837893,80.65323000000002,3.0637097e-05
2021-11-01,26.830816,82.00833,5.7341669999999985e-05
2021-12-01,27.804823,80.95968,0.00010543547
2022-01-01,27.929016,81.45968,0.0001178226
2022-02-01,28.163382,77.55357,6.7741064e-05
2022-03-01,27.845955,79.14516400000002,6.346774e-05
2022-04-01,27.07082,81.275,5.5641674e-05
2022-05-01,26.199184,81.05645,3.9096776e-05
2022-06-01,25.169157000000002,81.78333,1.9041667e-05
2022-07-01,25.071766,84.96774,3.2677417e-05
